<?xml version="1.0" encoding="utf-8"?>
<!-- Generator: Adobe Illustrator 22.0.1, SVG Export Plug-In . SVG Version: 6.00 Build 0)  -->
<svg version="1.1" id="Ebene_1" xmlns="http://www.w3.org/2000/svg" xmlns:xlink="http://www.w3.org/1999/xlink" x="0px" y="0px"
	 viewBox="0 0 800 201.4" style="enable-background:new 0 0 800 201.4;" xml:space="preserve">
<style type="text/css">
	.st0{fill:#83B834;}
</style>
<polygon class="st0" points="96.8,118 140.2,9.3 189,9.3 112.7,188.2 78.3,188.2 3.1,9.3 53.6,9.3 "/>
<path class="st0" d="M215.4,157.1l-12.3,31.1h-49.3L222.5,9.3h50.8l67.4,178.9h-49.6l-11.6-31.1H215.4z M247.9,64.6h-0.5l-19.2,56.9
	h38.7L247.9,64.6z"/>
<g>
	<path class="st0" d="M502,188.2h-57.9l-43.9-68.8h-0.5v68.8h-46.5V9.3h69.5c35.3,0,62.2,16.8,62.2,55c0,24.7-13.8,46-39.1,50.5
		L502,188.2z M399.8,89.5h4.5c15.2,0,32.3-2.8,32.3-22.3c0-19.5-17.1-22.3-32.3-22.3h-4.5V89.5z"/>
	<polygon class="st0" points="575.9,9.3 575.9,188.2 529.4,188.2 529.4,48.7 	"/>
	<path class="st0" d="M795,95.4c0,57.9-41.5,98.7-98.9,98.7c-57.4,0-98.9-40.8-98.9-98.7c0-54.1,47.4-92,98.9-92
		C747.6,3.4,795,41.4,795,95.4 M645.5,95.7c0,30.8,22.8,53.4,50.5,53.4c27.8,0,50.5-22.5,50.5-53.4c0-24.7-22.8-47.2-50.5-47.2
		C668.3,48.5,645.5,71,645.5,95.7"/>
</g>
<rect x="529.4" y="9.6" class="st0" width="46.4" height="49.7"/>
</svg>
