<?xml version="1.0" encoding="utf-8"?>
<!-- Generator: Adobe Illustrator 22.0.1, SVG Export Plug-In . SVG Version: 6.00 Build 0)  -->
<svg version="1.1" xmlns="http://www.w3.org/2000/svg" xmlns:xlink="http://www.w3.org/1999/xlink" x="0px" y="0px"
	 viewBox="0 0 718 314" style="enable-background:new 0 0 718 314;" xml:space="preserve">
<style type="text/css">
	.st0{display:none;}
	.st1{display:inline;fill:none;stroke:#6C6C6C;stroke-width:3;stroke-miterlimit:10;}
	.st2{display:inline;fill:none;stroke:#6C6C6C;stroke-width:2;stroke-miterlimit:10;}
	.st3{fill:#4D4C4C;}
	.st4{fill:#83B834;}
	.st5{display:inline;fill:#83B834;}
	.st6{display:inline;fill:#4D4C4C;}
	.st7{display:inline;}
	.st8{display:none;fill:#4D4C4C;}
</style>
<g id="helplines" class="st0">
</g>
<g id="lines" class="st0">
	<circle class="st1" cx="20.3" cy="204.7" r="4.3"/>
	<circle class="st2" cx="73" cy="152.2" r="2.7"/>
	<circle class="st2" cx="98.3" cy="46.6" r="2.7"/>
	<circle class="st2" cx="234.2" cy="46.6" r="2.7"/>
	<circle class="st2" cx="259.7" cy="152.2" r="2.7"/>
	<circle class="st2" cx="166.8" cy="305.2" r="2.7"/>
	<circle class="st1" cx="312.3" cy="204.7" r="4.3"/>
	<circle class="st1" cx="312.3" cy="26" r="4.3"/>
	<circle class="st1" cx="20.3" cy="26" r="4.3"/>
	<circle class="st1" cx="166.8" cy="67.3" r="4.3"/>
	<circle class="st1" cx="98.3" cy="279.8" r="4.3"/>
	<circle class="st1" cx="234.3" cy="279.8" r="4.3"/>
	<polyline class="st1" points="103,279.8 114.6,279.8 133.1,261.3 133.1,233.5 146.7,219.9 	"/>
	<polyline class="st1" points="229.6,279.8 218,279.8 199.5,261.3 199.5,233.5 185.9,219.9 	"/>
	<polyline class="st2" points="178.2,229.1 186.5,237.3 186.5,263.4 166.8,283.1 166.8,302.3 	"/>
	<polyline class="st1" points="25.1,204.5 48,204.5 65.3,187.3 90.2,187.3 96.8,193.8 108.4,193.8 125.5,176.7 	"/>
	<polyline class="st1" points="115.6,77.3 99.4,61.1 75,61.1 57.3,43.5 57.3,34.2 49.1,26 24.9,26 	"/>
	<polyline class="st1" points="216.8,77.3 233,61.1 257.5,61.1 275.2,43.5 275.2,34.2 283.4,26 307.6,26 	"/>
	<polyline class="st1" points="307.6,204.5 284.7,204.5 267.4,187.3 242.5,187.3 235.9,193.8 224.3,193.8 207.1,176.7 	"/>
	<polyline class="st2" points="73,149 73,136.8 55.8,119.5 55.8,103.6 62.1,97.3 96.3,97.3 	"/>
	<polyline class="st2" points="259.7,149 259.7,136.8 276.9,119.5 276.9,103.6 270.6,97.3 236.3,97.3 	"/>
	<polyline class="st2" points="101.5,46.7 117.1,46.7 123.9,53.5 116.3,61.1 116.3,81.3 	"/>
	<polyline class="st2" points="231,46.7 215.4,46.7 208.6,53.5 216.2,61.1 216.2,81.3 	"/>
	<polyline class="st1" points="170.8,67.3 187.4,67.3 197.6,77.6 197.6,82.4 191,88.9 191,98.4 201.7,109 	"/>
	<polyline class="st1" points="163,67.3 146.5,67.3 136.2,77.6 136.2,82.4 142.8,88.9 142.8,98.4 132.1,109 	"/>
	<polyline class="st2" points="155.3,229.1 147.1,237.3 147.1,263.4 166.8,283.1 166.8,302.3 	"/>
</g>
<g id="V">
	<g>
		<polygon class="st3" points="302.8,176 346.2,67.3 395,67.3 318.7,246.2 284.3,246.2 209.1,67.3 259.6,67.3 		"/>
	</g>
	<g>
		<polygon class="st4" points="166.8,176 210.2,67.3 259,67.3 182.7,246.2 148.3,246.2 73.1,67.3 123.6,67.3 		"/>
	</g>
	<g class="st0">
		<polygon class="st5" points="284.6,246.2 319,246.2 363.5,141 316.9,140.9 303.1,176 279.1,234.1 		"/>
	</g>
	<g class="st0">
		<polygon class="st6" points="399.6,246.2 355.1,141 373.2,92.5 438.5,246.2 		"/>
	</g>
	<g class="st0">
		<g class="st7">
			<path class="st3" d="M454.8,242.5V124.8h46.4c8.8,0,16.7,1.6,23.4,4.9c6.8,3.3,12.1,8,15.8,14.1c3.7,6,5.5,13,5.5,20.7
				c0,11.7-4.1,21.1-12.2,27.9c-8,6.7-19.1,10.1-33,10.1h-18.5v40.1H454.8z M501.2,179.4c5.7,0,10-1.3,12.8-3.9
				c2.8-2.5,4.2-6.1,4.2-11c0-5.1-1.4-9.1-4.4-12.1c-2.9-3.1-6.9-4.6-12.2-4.7l-19.4,0v31.7H501.2z"/>
			<path class="st3" d="M501.2,126.8c8.5,0,16.1,1.6,22.5,4.7s11.5,7.6,15,13.3c3.5,5.8,5.2,12.3,5.2,19.6
				c0,11.1-3.8,19.9-11.4,26.4c-7.6,6.4-18.2,9.6-31.7,9.6h-20.5v40.1h-23.4V126.8H501.2 M480.2,181.4h20.9c6.2,0,10.9-1.5,14.2-4.4
				c3.3-2.9,4.9-7.1,4.9-12.5c0-5.6-1.6-10.1-4.9-13.5s-7.8-5.2-13.6-5.3h-21.5V181.4 M501.2,122.8h-44.4h-4v4v113.8v4h4h23.4h4v-4
				v-36.1h16.5c14.4,0,25.9-3.6,34.3-10.6c8.5-7.2,12.9-17.1,12.9-29.4c0-8-2-15.4-5.8-21.7c-3.9-6.4-9.5-11.4-16.6-14.9
				C518.4,124.5,510.3,122.8,501.2,122.8L501.2,122.8z M484.2,149.7h17.4c4.7,0.1,8.2,1.4,10.7,4.1c2.6,2.7,3.8,6.2,3.8,10.8
				c0,4.3-1.2,7.4-3.6,9.5c-2.5,2.2-6.4,3.4-11.5,3.4h-16.9V149.7L484.2,149.7z"/>
		</g>
		<g class="st7">
			<path class="st3" d="M558,242.5V124.8h46.4c8.8,0,16.7,1.6,23.4,4.9c6.8,3.3,12.1,8,15.8,14.1c3.7,6,5.5,13,5.5,20.7
				c0,11.7-4.1,21.1-12.2,27.9c-8,6.7-19.1,10.1-33,10.1h-18.5v40.1H558z M604.4,179.4c5.7,0,10-1.3,12.8-3.9
				c2.8-2.5,4.2-6.1,4.2-11c0-5.1-1.4-9.1-4.4-12.1c-2.9-3.1-6.9-4.6-12.2-4.7l-19.4,0v31.7H604.4z"/>
			<path class="st3" d="M604.4,126.8c8.5,0,16.1,1.6,22.5,4.7s11.5,7.6,15,13.3c3.5,5.8,5.2,12.3,5.2,19.6
				c0,11.1-3.8,19.9-11.4,26.4c-7.6,6.4-18.2,9.6-31.7,9.6h-20.5v40.1H560V126.8H604.4 M583.4,181.4h20.9c6.2,0,10.9-1.5,14.2-4.4
				c3.3-2.9,4.9-7.1,4.9-12.5c0-5.6-1.6-10.1-4.9-13.5s-7.8-5.2-13.6-5.3h-21.5V181.4 M604.4,122.8H560h-4v4v113.8v4h4h23.4h4v-4
				v-36.1H604c14.4,0,25.9-3.6,34.3-10.6c8.5-7.2,12.9-17.1,12.9-29.4c0-8-2-15.4-5.8-21.7c-3.9-6.4-9.5-11.4-16.6-14.9
				C621.6,124.5,613.5,122.8,604.4,122.8L604.4,122.8z M587.4,149.7h17.4c4.7,0.1,8.2,1.4,10.7,4.1c2.6,2.7,3.8,6.2,3.8,10.8
				c0,4.3-1.2,7.4-3.6,9.5c-2.5,2.2-6.4,3.4-11.5,3.4h-16.9V149.7L587.4,149.7z"/>
		</g>
	</g>
	<rect x="324.5" y="204.7" class="st8" width="74.8" height="23.3"/>
	<g>
		<path class="st3" d="M452.2,222.8h-41.1l-7.8,23.4h-24.9l42.3-113.8h21.7L485,246.2h-24.9L452.2,222.8z M417.4,203.8h28.4
			l-14.3-42.6L417.4,203.8z"/>
		<path class="st3" d="M513,216.5v29.7h-17.3V162h32.8c6.3,0,11.9,1.2,16.7,3.5c4.8,2.3,8.5,5.6,11.1,9.9c2.6,4.3,3.9,9.1,3.9,14.5
			c0,8.2-2.8,14.8-8.5,19.5c-5.6,4.8-13.5,7.1-23.4,7.1H513z M513,202.5h15.5c4.6,0,8.1-1.1,10.5-3.2c2.4-2.2,3.6-5.2,3.6-9.3
			c0-4.1-1.2-7.5-3.6-10s-5.8-3.9-10.1-3.9H513V202.5z"/>
		<path class="st3" d="M589.4,216.5v29.7H572V162h32.8c6.3,0,11.9,1.2,16.7,3.5c4.8,2.3,8.5,5.6,11.1,9.9c2.6,4.3,3.9,9.1,3.9,14.5
			c0,8.2-2.8,14.8-8.5,19.5c-5.6,4.8-13.5,7.1-23.4,7.1H589.4z M589.4,202.5h15.5c4.6,0,8.1-1.1,10.5-3.2c2.4-2.2,3.6-5.2,3.6-9.3
			c0-4.1-1.2-7.5-3.6-10s-5.8-3.9-10.1-3.9h-15.9V202.5z"/>
	</g>
</g>
</svg>
